<!DOCTYPE html>
<!--[if IE 9]> <html class="ie9 no-js" lang="en"> <![endif]-->
<!--[if (gt IE 9)|!(IE)]><!-->
<html class="no-js" lang="en">
<!--<![endif]-->

<head>
    <meta charset="UTF-8">
    <meta name="viewport" content="width=device-width, initial-scale=1.0">
    <meta http-equiv="X-UA-Compatible" content="ie=edge">
    <title>Toko Online @yield("title")</title>
    <!-- Menggunakan template bootstrap -->
    <!-- /* Download terlebih dahulu */ -->
    <!--  https://github.com/azamuddin/polished-template -->
    <!-- /* lalu rename folder dist di hasil download kita menjadi 
            polished dan letakkan di direktori public project  */ -->
    <!-- ================================= -->
    <!-- Selanjutnya di view-view lainnya kita bisa menggunakan layout ini dengan cara:
        @extends("layouts.global") 
    -->
    <link rel="stylesheet" href="{{asset('polished/polished.min.css')}}">
    <!-- disini kita menggunakan file css polished.min.css
    dan kita menggunakan helper asset() untuk mereferensi file tersebut 
    yang terletak di direktori public/polished/polished.min.css -->
    <!-- helper asset -->
    <!-- akan menghasilkan URL untuk mengakses file file yang terdapat di direktori
    public, sehingga bisa mereferensikan content dari file lain
    contohnya: logo dari folder image
    Ini seperti halnya import, tapi laravel menggunakan
    asset -->
    <link rel="stylesheet" href="{{asset('polished/iconic/css/open-iconic-bootstrap.min.css')}}">
    <style>
    .grid-highlight {
        padding-top: 1rem;
        padding-bottom: 1rem;
        background-color: #5c6ac4;
        border: 1px solid #202e78;
        color: #fff;
    }

    hr {
        margin: 6rem 0;
    }

    hr+.display-3,
    hr+.display-2+.display-3 {
        margin-bottom: 2rem;
    }
    </style>
    <script type="text/javascript">
    document.documentElement.className = document.documentElement.className.replace('no-js', 'js') +
        (document.implementation.hasFeature("http://www.w3.org/TR/SVG11/feature#BasicStructure", "1.1") ? ' svg' :
            ' no-svg');
    </script>
</head>

<body>
    <nav class="navbar navbar-expand p-0">
        <a class="navbar-brand text-center col-xs-12 col-md-3 col-lg-2 mr-0" href="index.html">
            Toko Buku Online
        </a>
        <button class="btn btn-link d-block d-md-none" data-toggle="collapse" data-target="#sidebar-nav" role="button">
            <span class="oi oi-menu">
            </span>
        </button>

        <input class="border-dark bg-primary-darkest form-control d-none d-md-block w-50 ml-3 mr-2" type="text"
            placeholder="Search" aria-label="Search">
        <div class="dropdown d-none d-md-block">
            @if(\Auth::user())
            <button class="btn btn-link btn-link-primary dropdown-toggle" id="navbar-dropdown" data-toggle="dropdown">
                {{Auth::user()->name}}
            </button>
            @endif
            <div class="dropdown-menu dropdown-menu-right" id="navbar-dropdown">
                <a href="#" class="dropdown-item">Profile</a>
                <a href="#" class="dropdown-item">Setting</a>
                <div class="dropdown-divider"></div>
                <li>
                    <form action="{{route("logout")}}" method="POST">
                        @csrf
                        <button class="dropdown-item" style="cursor:pointer">Sign Out</button>
                    </form>
                </li>
            </div>
        </div>
    </nav>

    <div class="container-fluid h-100 p-0">
        <div style="min-height: 100%" class="flex-row d-flex align-items-stretch m-0">
            <div class="polished-sidebar bg-light col-12 col-md-3 col-lg-2 p-0 collapse d-md-inline" id="sidebar-nav">

                <ul class="polished-sidebar-menu ml-0 pt-4 p-0 d-md-block">
                    <input class="border-dark form-control d-block d-md-none mb-4" type="text" placeholder="Search"
                        aria-label="Search" />
                    <!-- ini menu bar yang ada di pojok kanan -->
                    <!-- klik Dashboard Admin dengan panah kebawah -->
                    <!-- dan akan muncul menu  -->
                    <!-- 1. Home -->
                    <li><a href="/home"><span class="oi oi-home"></span> Home</a></li>

                    <div class="d-block d-md-none">
                        <div class="dropdown-divider"></div>
                        <!-- 2. Profile -->
                        <li><a href="#"> Profile</a></li>
                        <!-- 3. Setting-->
                        <li><a href="#"> Setting</a></li>
                        <li>
                            <!-- 4. Logout -->
                            <!-- link logout -->
                            <form action="{{route("logout")}}" method="POST">
                                @csrf
                                <button class="dropdown-item" style="cursor:pointer">Sign Out</button>
                            </form>
                            <!-- <form action="{{route("logout")}}" method="POST">
                                @csrf
                                <button class="dropdown-item" style="cursor:pointer">Sign Out</button>
                            </form> -->
                            <!-- Route authentification yang dibuat dengan artisan ui vue --auth
                        adalah {url}/logout, 
                        tetapi route itu hanya terima metode POST. Sehingga tidak bisa
                        melakukan logout hanya dengan mengakses /logout. Tetapi kita harus 
                        membuat form dengan method POST dan mengirim data yang kosong ke url tersebut
                        Karena itu, kita membuat form dengan code tersebut  -->
                            <!-- <form action="{{route("logout")}}" method="POST">
                           @csrf
                            <button class="dropdown-item" style="cursor:pointer">
                            Sign Out
                            </button>
                            </form> 
                        -->
                            <!-- Form tersebut kita letakan di drodpown menu kanan. -->
                        </li>
                    </div>
                </ul>
                <div class="pl-3 d-none d-md-block position-fixed" style="bottom: 0px">
                    <span class="oi oi-cog"></span> Setting
                </div>
            </div>
            <div class="col-lg-10 col-md-9 p-4">
                <div class="row ">
                    <div class="col-md-12 pl-3 pt-2">
                        <div class="pl-3">
                            <h3>@yield("title")</h3>
                            <br / </div>
                        </div>
                    </div>
                    <!-- ini tempat content -->
                    @yield("content")

                </div>
            </div>
        </div>

        <!-- karena menggunakan ajax,disini memakai jquery FULL version (bukan
        SLIM version. Bawaan dari template polished adalah SLIM, 
        jadi kita tinggal replave menggunakan versi berikut) -->

        <!-- 
            <script
            src="https://code.jquery.com/jquery-3.3.1.min.js"
            integrity="sha256-FgpCb/KJQlLNfOu91ta32o/NMZxltwRo8QtmkMRdAu8="
            crossorigin="anonymous"></script>
         -->
        <script src="https://code.jquery.com/jquery-3.3.1.min.js"
            integrity="sha256-FgpCb/KJQlLNfOu91ta32o/NMZxltwRo8QtmkMRdAu8=" crossorigin="anonymous"></script>
        <script src="https://cdnjs.cloudflare.com/ajax/libs/popper.js/1.14.0/umd/popper.min.js"
            integrity="sha384-cs/chFZiN24E4KMATLdqdvsezGxaGsi4hLGOzlXwp5UZB1LY//20VyM2taTB4QvJ" crossorigin="anonymous">
        </script>
        <script src="https://stackpath.bootstrapcdn.com/bootstrap/4.1.0/js/bootstrap.min.js"
            integrity="sha384-uefMccjFJAIv6A+rW+L4AHf99KvxDjWSu1z9VI8SKNVmz4sk7buKt/6v9KI65qnm" crossorigin="anonymous">
        </script>

</body>

</html>